Confidence and Uncertainty | Introduction to Data Science
…
bsRes<-NULL ##  Create a NULL variable: will fill this in later
for (i in 1:1000){ # Repeat the steps below 1000 times
  bsRes<-nba%>%
  sample_n(size=sample_size, replace=TRUE) %>% ## Sample 100 players
  group_by(conference)%>% ## Group by conference
  summarize(mean_pf=mean(pf))%>% ## Calculate mean personal fouls for Eastern and Western players
    mutate(bsInd = i) %>% ## Save the indicator for which random sample we are on
    bind_rows(bsRes) ## add this result to the existing dataset
}

Now I have a dataset that is built up from a bunch of small resamples from the data, with average personal fouls for Eastern and Western conference players in each small sample. Let’s see what these look like.

bsRes

## # A tibble: 2,000 × 3
##    conference mean_pf bsInd
##    <chr>        <dbl> <int>
##  1 East          84.4  1000
##  2 West          86.9  1000
##  3 East          91.5   999
##  4 West          93.2   999
##  5 East         102.    998
##  6 West          94.3   998
##  7 East         112.    997
##  8 West         102.    997
##  9 East         113.    996
## 10 West          94.5   996
## # ℹ 1,990 more rows
…
It’s pretty hard to tell if these are different, right?

So What? Using Percentiles of the Resampled Distribution

Now we can make some statements about uncertainty. Based on this, we can pretend to be all-powerful voyager across universes, and conclude that Eastern conference players commit more personal fouls.

The easiest way to do this is just to create a new variable that indicates whether the Eastern conference players had more personal fouls than the Western conference players in a given random sample. But currently, our data is organized in the “long” format, right?

bsRes

## # A tibble: 2,000 × 3
##    conference mean_pf bsInd
##    <chr>        <dbl> <int>
##  1 East          84.4  1000
##  2 West          86.9  1000
##  3 East          91.5   999
##  4 West          93.2   999
##  5 East         102.    998
##  6 West          94.3   998
##  7 East         112.    997
##  8 West         102.    997
##  9 East         113.    996
## 10 West          94.5   996
## # ℹ 1,990 more rows

We want to convert it to the “wide” format, which means that each row is a random sample simulation, and we have one column for the Eastern conference personal fouls, and one column for the Western conference personal fouls.

Let’s create this using either spread() or pivot_wider().

# Spread approach
bsRes %>%
  spread(conference,mean_pf)

## # A tibble: 1,000 × 3
##    bsInd  East  West
##    <int> <dbl> <dbl>
##  1     1 112.   92.3
##  2     2 110.   92.5
##  3     3  85.9 104. 
##  4     4 103.   93.2
##  5     5  93.5  79.5
##  6     6  94.2  98.0
##  7     7  93.8  94.1
##  8     8  94.6  89.9
##  9     9  91.8  79.8
## 10    10  92.0 101. 
## # ℹ 990 more rows

# Pivot-wider approach
bsRes %>%
  pivot_wider(names_from = 'conference',values_from = 'mean_pf')

## # A tibble: 1,000 × 3
##    bsInd  East  West
##    <int> <dbl> <dbl>
##  1  1000  84.4  86.9
##  2   999  91.5  93.2
##  3   998 102.   94.3
##  4   997 112.  102. 
##  5   996 113.   94.5
##  6   995 117.   84.6
##  7   994  92.5  92.3
##  8   993 106.   98.1
##  9   992 101.   85.5
## 10   991  97.2  99.7
## # ℹ 990 more rows

With the data organized in “wide” format, it is now trivial to calculate whether the Eastern players had more personal fouls than the Western players.

bsRes %>%
  pivot_wider(names_from = 'conference',values_from = 'mean_pf') %>%
  mutate(diff = East - West,
         EastMore = diff > 0)

## # A tibble: 1,000 × 5
##    bsInd  East  West   diff EastMore
##    <int> <dbl> <dbl>  <dbl> <lgl>   
##  1  1000  84.4  86.9 -2.47  FALSE   
##  2   999  91.5  93.2 -1.73  FALSE   
##  3   998 102.   94.3  7.53  TRUE    
##  4   997 112.  102.   9.75  TRUE    
##  5   996 113.   94.5 18.3   TRUE    
##  6   995 117.   84.6 32.8   TRUE    
##  7   994  92.5  92.3  0.235 TRUE    
##  8   993 106.   98.1  7.37  TRUE    
##  9   992 101.   85.5 15.9   TRUE    
## 10   991  97.2  99.7 -2.44  FALSE   
## # ℹ 990 more rows
…
