…
Measure 2: Biden Pct = Probability Biden wins

Measure 3: Normalized Biden Pct = Probability Biden wins (i.e., all voters either vote for Biden or Trump). Sometimes called “two-party” vote.

How does this vary across states? The joys of group_by(). Note that group_by() defines what happens for all subsequent code in that code chunk. So here we are going to calculate the mean separately for each state.

stateprobs <- Pres2020.StatePolls %>%
    group_by(StateName) %>%
      summarize(BidenProbWin1 = mean(Biden > Trump),
                BidenProbWin2 = mean(Biden),  
                BidenProbWin3 = mean(BidenNorm))

stateprobs

## # A tibble: 50 × 4
##    StateName   BidenProbWin1 BidenProbWin2 BidenProbWin3
##    <chr>               <dbl>         <dbl>         <dbl>
##  1 Alabama             0             0.389         0.407
##  2 Alaska              0             0.442         0.466
##  3 Arizona             0.840         0.484         0.519
##  4 Arkansas            0             0.381         0.395
##  5 California          1             0.618         0.661
##  6 Colorado            1             0.534         0.571
##  7 Connecticut         1             0.584         0.631
##  8 Delaware            1             0.603         0.627
##  9 Florida             0.798         0.486         0.517
## 10 Georgia             0.548         0.474         0.504
## # ℹ 40 more rows
…
