…
kcluster.fl[1,]

## # A tibble: 1 × 4
##       K kcluster tidysummary      augmented        
##   <int> <list>   <list>           <list>           
## 1     1 <kmeans> <tibble [1 × 8]> <tibble [67 × 6]>

But to work with these objects we need to extract these lists. Lists are a pain in R – especially when you are starting out – so do not think too hard about the following. What we are going to essentially do is to extract each of the list objects in kcluster.fl to a separate tibble.

clusters <- kcluster.fl %>%
  unnest(cols=c(tidysummary))

clusters

## # A tibble: 55 × 11
##        K kcluster pct_rep_2004 pct_rep_2008 pct_rep_2012 pct_rep_2016
##    <int> <list>          <dbl>        <dbl>        <dbl>        <dbl>
##  1     1 <kmeans>        0.595        0.581        0.595        0.620
##  2     2 <kmeans>        0.674        0.680        0.695        0.730
##  3     2 <kmeans>        0.519        0.484        0.499        0.514
##  4     3 <kmeans>        0.580        0.562        0.584        0.620
##  5     3 <kmeans>        0.462        0.420        0.425        0.416
##  6     3 <kmeans>        0.707        0.716        0.727        0.759
##  7     4 <kmeans>        0.531        0.495        0.511        0.533
##  8     4 <kmeans>        0.416        0.374        0.371        0.351
##  9     4 <kmeans>        0.712        0.724        0.734        0.765
## 10     4 <kmeans>        0.601        0.588        0.611        0.648
## # ℹ 45 more rows
## # ℹ 5 more variables: pct_rep_2020 <dbl>, size <int>, withinss <dbl>,
## #   cluster <fct>, augmented <list>

So clusters is a tibble that consists of the centroids associated with each of the centroids in each of the K clusterings we did.

We can also extract the clusters associated with each of the observations by doing a similar operation on the augmented list we created.

points <- kcluster.fl %>%
  unnest(cols=c(augmented))

points

## # A tibble: 670 × 9
##        K kcluster tidysummary      pct_rep_2004 pct_rep_2008 pct_rep_2012
##    <int> <list>   <list>                  <dbl>        <dbl>        <dbl>
##  1     1 <kmeans> <tibble [1 × 8]>        0.429        0.386        0.405
##  2     1 <kmeans> <tibble [1 × 8]>        0.777        0.784        0.789
##  3     1 <kmeans> <tibble [1 × 8]>        0.712        0.699        0.712
##  4     1 <kmeans> <tibble [1 × 8]>        0.696        0.697        0.706
##  5     1 <kmeans> <tibble [1 × 8]>        0.577        0.547        0.558
##  6     1 <kmeans> <tibble [1 × 8]>        0.346        0.324        0.323
##  7     1 <kmeans> <tibble [1 × 8]>        0.634        0.696        0.710
##  8     1 <kmeans> <tibble [1 × 8]>        0.557        0.531        0.567
##  9     1 <kmeans> <tibble [1 × 8]>        0.569        0.574        0.604
## 10     1 <kmeans> <tibble [1 × 8]>        0.762        0.711        0.725
## # ℹ 660 more rows
## # ℹ 3 more variables: pct_rep_2016 <dbl>, pct_rep_2020 <dbl>, .cluster <fct>
…
