…
We are going to go back to two previous datasets to get started. Our main focus will be on the college debt data from the beginning of the semester. Recall our previous work where we looked at the relationship between SAT scores and future earnings. All else equal, we expect that future earnings (\(Y\)) are positively related with SAT scores (\(X\)).

Let’s load the data and packages first.

require(tidyverse)
require(plotly)
sc_debt <- read_rds('https://github.com/rweldzius/PSC4175_SUM2025/raw/main/Data/sc_debt.Rds')

Now let’s look at our two variables of interest before we do anything else. Are these continuous? Categorical?

sc_debt %>%
  select(sat_avg,md_earn_wne_p6)

## # A tibble: 2,546 × 2
##    sat_avg md_earn_wne_p6
##      <int>          <int>
##  1     939          25200
##  2    1234          35100
##  3      NA          30700
##  4    1319          36200
##  5     946          22600
##  6    1261          37400
##  7      NA          23100
##  8      NA          33400
##  9    1082          30100
## 10    1300          39500
## # ℹ 2,536 more rows
…
