…
You’ll notice that the code above starts with df. This is just an arbitrary name for an object. You could name it dat or raw or debt or whatever you want. Then there’s an arrow <-. This is an assignment operator. Then there’s a function, readRDS, with parentheses, and an argument “sc_debt.Rds”. Here’s how to think about this.

Functions in R always have arguments within parentheses. This function. readRDS opens a type of data– rds data. This function has one argument which is the name of the file I want to open.

Assignment operators take the result of a function and assign it to an object name.

Objects in R store information locally so that it can be accessed again.

So the command above says “use readRDS to open the file”sc_debt.Rds” and assign the result to the object df.

Let’s take a quick look at the object df

df

## # A tibble: 2,546 × 16
##    unitid instnm   stabbr grad_debt_mdn control region preddeg openadmp adm_rate
##     <int> <chr>    <chr>          <int> <chr>   <chr>  <chr>      <int>    <dbl>
##  1 100654 Alabama… AL             33375 Public  South… Bachel…        2    0.918
##  2 100663 Univers… AL             22500 Public  South… Bachel…        2    0.737
##  3 100690 Amridge… AL             27334 Private South… Associ…        1   NA    
##  4 100706 Univers… AL             21607 Public  South… Bachel…        2    0.826
##  5 100724 Alabama… AL             32000 Public  South… Bachel…        2    0.969
##  6 100751 The Uni… AL             23250 Public  South… Bachel…        2    0.827
##  7 100760 Central… AL             12500 Public  South… Associ…        1   NA    
##  8 100812 Athens … AL             19500 Public  South… Bachel…       NA   NA    
##  9 100830 Auburn … AL             24826 Public  South… Bachel…        2    0.904
## 10 100858 Auburn … AL             21281 Public  South… Bachel…        2    0.807
## # ℹ 2,536 more rows
## # ℹ 7 more variables: ccbasic <int>, sat_avg <int>, md_earn_wne_p6 <int>,
## #   ugds <int>, costt4_a <int>, selective <dbl>, research_u <dbl>
…
! :not, as in != not equal to

& AND

| OR

Next, we can use filter to look at colleges with low admissions rates, say less than 10% ( or .1 in the proportion scale used in the dataset).

df%>%
  filter(adm_rate<.1)%>%
  select(instnm,adm_rate,sat_avg)%>%
  arrange(sat_avg,adm_rate)%>%
  print(n=20)

## # A tibble: 25 × 3
##    instnm                                      adm_rate sat_avg
##    <chr>                                          <dbl>   <int>
##  1 Colby College                                 0.0967    1456
##  2 Swarthmore College                            0.0893    1469
##  3 Pomona College                                0.074     1480
##  4 Dartmouth College                             0.0793    1500
##  5 Stanford University                           0.0434    1503
##  6 Northwestern University                       0.0905    1506
##  7 Columbia University in the City of New York   0.0545    1511
##  8 Brown University                              0.0707    1511
##  9 University of Pennsylvania                    0.0766    1511
## 10 Vanderbilt University                         0.0912    1515
## 11 Harvard University                            0.0464    1517
## 12 Princeton University                          0.0578    1517
## 13 Yale University                               0.0608    1517
## 14 Rice University                               0.0872    1520
## 15 Duke University                               0.076     1522
## 16 University of Chicago                         0.0617    1528
## 17 Massachusetts Institute of Technology         0.067     1547
## 18 California Institute of Technology            0.0642    1557
## 19 Saint Elizabeth College of Nursing            0           NA
## 20 Yeshivat Hechal Shemuel                       0           NA
## # ℹ 5 more rows

Now let’s look at colleges with low admit rates, and order them using arrange by SAT scores (-sat_avg gives descending order).

df%>%
  filter(adm_rate<.1)%>%
  select(instnm,adm_rate,sat_avg)%>%
  arrange(-sat_avg)

## # A tibble: 25 × 3
##    instnm                                      adm_rate sat_avg
##    <chr>                                          <dbl>   <int>
##  1 California Institute of Technology            0.0642    1557
##  2 Massachusetts Institute of Technology         0.067     1547
##  3 University of Chicago                         0.0617    1528
##  4 Duke University                               0.076     1522
##  5 Rice University                               0.0872    1520
##  6 Yale University                               0.0608    1517
##  7 Harvard University                            0.0464    1517
##  8 Princeton University                          0.0578    1517
##  9 Vanderbilt University                         0.0912    1515
## 10 Columbia University in the City of New York   0.0545    1511
## # ℹ 15 more rows
…
