…
Back to Reality

We can also just read in the already-wrangled data tweet_words and proceed from here.

tweet_words <- read_rds(file="https://github.com/rweldzius/PSC4175_SUM2025/raw/main/Data/Trump_tweet_words.Rds")

So what are the most commonly tweeted word stems?

tweet_words %>% 
  count(word) %>%
  arrange(-n)

## # A tibble: 45,221 × 2
##    word          n
##    <chr>     <int>
##  1 trump      6269
##  2 president  4637
##  3 amp        4306
##  4 people     3475
##  5 country    2302
##  6 america    2211
##  7 time       1913
##  8 donald     1891
##  9 news       1842
## 10 democrats  1824
## # ℹ 45,211 more rows
…
So let’s tidy it up to see the centroids – here mean frequency– associated with each word in each cluster.

require(broom)
tidy(km_out)

## # A tibble: 50 × 3,180
##       david  donald    late letterman     list   night    ten tonight     top
##       <dbl>   <dbl>   <dbl>     <dbl>    <dbl>   <dbl>  <dbl>   <dbl>   <dbl>
##  1 0        0.00970 0               0 0        0.0783  0      0.0898  0      
##  2 0        0       0               0 0        0       0      0       0      
##  3 0        0       0               0 0        0       0      0       0      
##  4 0        0       0               0 0        0       0      0       0      
##  5 0        0       0               0 0        0.00861 0      0.0297  0      
##  6 0        0.250   0               0 0.0209   0.0170  0.0201 0       0.0112 
##  7 0.000647 0.00121 0.00114         0 0.000271 0.00859 0      0.00427 0.00160
##  8 0        0       0               0 0        0       0      0       0      
##  9 0        0       0               0 0        0       0      0       0.607  
## 10 0        0.0559  0               0 0        0       0      0       0      
## # ℹ 40 more rows
## # ℹ 3,171 more variables: trump <dbl>, tune <dbl>, watch <dbl>,
## #   apprentice <dbl>, book <dbl>, celebrity <dbl>, champion <dbl>,
## #   discuss <dbl>, morning <dbl>, tomorrow <dbl>, view <dbl>, finale <dbl>,
## #   financial <dbl>, funny <dbl>, learned <dbl>, post <dbl>, build <dbl>,
## #   fired <dbl>, id <dbl>, ive <dbl>, miss <dbl>, usa <dbl>, walls <dbl>,
## #   discussing <dbl>, interview <dbl>, listen <dbl>, sense <dbl>, …
…
We can also assign each topic to the “documents” it is associated with. To do this, we need to create a new dataset as follows:
- Get the document names from the castdtm object. These are stored in the dimnames variable under Docs.
- Get the cluster (topics) for each document from the km_out object. These are stored in the cluster variable.
- R automatically converted the document names to character representations of the numeric version of the data. We need to convert these back to dates using as.Date() combined with as.numeric(). Since these are stored as raw numbers, we must specify the origin = "1970-01-01" in order for the as.Date() function to work properly.

doc_cluster <- data.frame(Tweeting.date = castdtm$dimnames$Docs, # Get the document names from the castdtm object.
           cluster = km_out$cluster) %>% # Get the topics from thr km_out object
  as_tibble() %>%
  mutate(Tweeting.date = as.Date(as.numeric(Tweeting.date),origin = '1970-01-01')) # Convert the document names back to date formats

doc_cluster

## # A tibble: 3,492 × 2
##    Tweeting.date cluster
##    <date>          <int>
##  1 2009-05-04         18
##  2 2009-05-05         12
##  3 2009-05-08         18
##  4 2009-05-12          6
##  5 2009-05-13         10
##  6 2009-05-14          6
##  7 2009-05-15         28
##  8 2009-05-16          6
##  9 2009-05-17          6
## 10 2009-05-18          6
## # ℹ 3,482 more rows
…
