Confidence and Uncertainty | Introduction to Data Science
…
Motivation: How much do turnovers matter?

We’re going to work with a different dataset covering every NBA game played in the seasons 2016-17 to 2018-19. I’m interested in whether winning teams have higher or lower values of turnovers, and whether winning teams tend to more often make over 80 percent of their free throws.

library(tidyverse)

The Data

The data for today is game by team summary data for every game played from 2017 to 2019. Make sure to download the data (game_summary.Rds) and save to your data folder!

gms<-read_rds("../../static/data/game_summary.Rds")
gms

## # A tibble: 7,380 × 16
##      idGame yearSeason dateGame   idTeam nameTeam locationGame   tov   pts  treb
##       <dbl>      <int> <date>      <dbl> <chr>    <chr>        <dbl> <dbl> <dbl>
##  1 21600001       2017 2016-10-25 1.61e9 Clevela… H               14   117    51
##  2 21600001       2017 2016-10-25 1.61e9 New Yor… A               18    88    42
##  3 21600002       2017 2016-10-25 1.61e9 Portlan… H               12   113    34
##  4 21600002       2017 2016-10-25 1.61e9 Utah Ja… A               11   104    31
##  5 21600003       2017 2016-10-25 1.61e9 Golden … H               16   100    35
##  6 21600003       2017 2016-10-25 1.61e9 San Ant… A               13   129    55
##  7 21600004       2017 2016-10-26 1.61e9 Miami H… A               10   108    52
##  8 21600004       2017 2016-10-26 1.61e9 Orlando… H               11    96    45
##  9 21600005       2017 2016-10-26 1.61e9 Dallas … A               15   121    49
## 10 21600005       2017 2016-10-26 1.61e9 Indiana… H               16   130    52
## # ℹ 7,370 more rows
## # ℹ 7 more variables: oreb <dbl>, pctFG <dbl>, pctFT <dbl>, teamrest <dbl>,
## #   second_game <lgl>, isWin <lgl>, ft_80 <dbl>
…
gms_tov_rs<-NULL ##  Create a NULL variable: will fill this in later
for (i in 1:1000){ # Repeat the steps below 1000 times
  gms_tov_rs<-gms%>% ## Create a dataset called gms_tov_rs (rs=resampled)
  filter(yearSeason==2017)%>%  ## Just 2017
  sample_n(size=sample_size, replace=TRUE) %>% ## Sample 100 games
  group_by(isWin)%>% ## Group by won or lost
  summarize(mean_tov=mean(tov))%>% ## Calculate mean turnovers for winners and losers
    bind_rows(gms_tov_rs) ## add this result to the existing dataset
}

Now I have a dataset that is built up from a bunch of small resamples from the data, with average turnovers for winners and losers in each small sample. Let’s see what these look like.

gms_tov_rs

## # A tibble: 2,000 × 2
##    isWin mean_tov
##    <lgl>    <dbl>
##  1 FALSE     14.5
##  2 TRUE      13.7
##  3 FALSE     13.7
##  4 TRUE      12.8
##  5 FALSE     14.4
##  6 TRUE      12.3
##  7 FALSE     13.6
##  8 TRUE      13.2
##  9 FALSE     13.6
## 10 TRUE      11.4
## # ℹ 1,990 more rows
…
