Visualization and Univariate Analysis | Introduction to Data Science
…
Continuous

Let’s start by taking a look at field goals. It seems pretty likely that this is a continuous variable. Let’s take a look at the top 50 spots.

nba%>% ## Start with the dataset
  select(namePlayer,slugTeam,fgm)%>% ## and then select a few variables
  arrange(-fgm)%>% ## arrange in reverse order of field goals
  print(n=50) ## print out the top 50

## # A tibble: 530 × 3
##    namePlayer            slugTeam   fgm
##    <chr>                 <chr>    <dbl>
##  1 James Harden          HOU        843
##  2 Bradley Beal          WAS        764
##  3 Kemba Walker          CHA        731
##  4 Giannis Antetokounmpo MIL        721
##  5 Kevin Durant          GSW        721
##  6 Paul George           OKC        707
##  7 Nikola Vucevic        ORL        701
##  8 LaMarcus Aldridge     SAS        684
##  9 Damian Lillard        POR        681
## 10 Karl-Anthony Towns    MIN        681
## 11 Donovan Mitchell      UTA        661
## 12 D'Angelo Russell      BKN        659
## 13 Klay Thompson         GSW        655
## 14 Stephen Curry         GSW        632
## 15 DeMar DeRozan         SAS        631
## 16 Russell Westbrook     OKC        630
## 17 Buddy Hield           SAC        623
## 18 Blake Griffin         DET        619
## 19 Nikola Jokic          DEN        616
## 20 Tobias Harris         MIN        611
## 21 Kyrie Irving          BOS        604
## 22 Devin Booker          PHX        586
## 23 Joel Embiid           PHI        580
## 24 CJ McCollum           POR        571
## 25 Julius Randle         NOP        571
## 26 Andre Drummond        DET        561
## 27 Kawhi Leonard         TOR        560
## 28 LeBron James          LAL        558
## 29 Jrue Holiday          NOP        547
## 30 Montrezl Harrell      LAC        546
## 31 Ben Simmons           PHI        540
## 32 Anthony Davis         NOP        530
## 33 Zach LaVine           CHI        530
## 34 Jordan Clarkson       CLE        529
## 35 Trae Young            ATL        525
## 36 Bojan Bogdanovic      IND        522
## 37 Pascal Siakam         TOR        519
## 38 Collin Sexton         CLE        519
## 39 Jamal Murray          DEN        513
## 40 Deandre Ayton         PHX        509
## 41 Luka Doncic           DAL        506
## 42 Khris Middleton       MIL        506
## 43 De'Aaron Fox          SAC        505
## 44 Andrew Wiggins        MIN        498
## 45 Kyle Kuzma            LAL        496
## 46 Mike Conley           MEM        490
## 47 Lou Williams          LAC        484
## 48 Steven Adams          OKC        481
## 49 Rudy Gobert           UTA        476
## 50 Clint Capela          HOU        474
## # ℹ 480 more rows
…
Quick Exercise What measure would you prefer for field goal percentage? Calculate that measure.

# INSERT CODE HERE

Categorical: ordered

Let’s take a look at player seasons.

nba%>%
  select(namePlayer,numberPlayerSeason)%>%
  arrange(-numberPlayerSeason)%>%
  print(n=50)

## # A tibble: 530 × 2
##    namePlayer        numberPlayerSeason
##    <chr>                          <dbl>
##  1 Vince Carter                      20
##  2 Dirk Nowitzki                     20
##  3 Jamal Crawford                    18
##  4 Tony Parker                       17
##  5 Tyson Chandler                    17
##  6 Pau Gasol                         17
##  7 Nene                              16
##  8 Carmelo Anthony                   15
##  9 Udonis Haslem                     15
## 10 LeBron James                      15
## 11 Zaza Pachulia                     15
## 12 Dwyane Wade                       15
## 13 Kyle Korver                       15
## 14 Luol Deng                         14
## 15 Devin Harris                      14
## 16 Dwight Howard                     14
## 17 Andre Iguodala                    14
## 18 JR Smith                          14
## 19 Trevor Ariza                      14
## 20 Andrew Bogut                      13
## 21 Jose Calderon                     13
## 22 Raymond Felton                    13
## 23 Amir Johnson                      13
## 24 Shaun Livingston                  13
## 25 Chris Paul                        13
## 26 Marvin Williams                   13
## 27 Lou Williams                      13
## 28 CJ Miles                          13
## 29 LaMarcus Aldridge                 12
## 30 J.J. Barea                        12
## 31 Channing Frye                     12
## 32 Rudy Gay                          12
## 33 Kyle Lowry                        12
## 34 Paul Millsap                      12
## 35 JJ Redick                         12
## 36 Rajon Rondo                       12
## 37 Thabo Sefolosha                   12
## 38 Marco Belinelli                   11
## 39 Mike Conley                       11
## 40 Kevin Durant                      11
## 41 Jared Dudley                      11
## 42 Marcin Gortat                     11
## 43 Gerald Green                      11
## 44 Al Horford                        11
## 45 Joakim Noah                       11
## 46 Thaddeus Young                    11
## 47 Nick Young                        11
## 48 Corey Brewer                      11
## 49 D.J. Augustin                     10
## 50 Jerryd Bayless                    10
## # ℹ 480 more rows
…
What does this tell us?

Quick Exercise Create a histogram for player age. What does that tell us about the NBA?

# INSERT CODE HERE

Categorical: ordered, binary

Let’s take a look at the variable for Rookie season.

nba%>%select(namePlayer,isRookie)

## # A tibble: 530 × 2
##    namePlayer             isRookie
##    <chr>                  <lgl>   
##  1 LaMarcus Aldridge      FALSE   
##  2 Quincy Acy             FALSE   
##  3 Steven Adams           FALSE   
##  4 Alex Abrines           FALSE   
##  5 Bam Adebayo            FALSE   
##  6 Rawle Alkins           TRUE    
##  7 Grayson Allen          TRUE    
##  8 Deng Adel              TRUE    
##  9 Jaylen Adams           TRUE    
## 10 DeVaughn Akoon-Purcell TRUE    
## # ℹ 520 more rows
…
## Rows: 530
## Columns: 1
## $ org <fct> Texas, NA, Other, FC Barcelona Basquet, Kentucky, NA, Duke, NA, NA…

This look like team or college names, so this would be a categorical variable. Let’s take a look at the counts of players from different organizations:

nba%>%
  group_by(org)%>%
  count()%>%
  arrange(-n)%>%
  print(n=50)

## # A tibble: 68 × 2
## # Groups:   org [68]
##    org                        n
##    <fct>                  <int>
##  1 <NA>                     157
##  2 Other                     85
##  3 Kentucky                  25
##  4 Duke                      17
##  5 California-Los Angeles    15
##  6 Kansas                    11
##  7 Arizona                   10
##  8 Texas                     10
##  9 North Carolina             9
## 10 Michigan                   8
## 11 Villanova                  7
## 12 Indiana                    6
## 13 Southern California        6
## 14 Syracuse                   6
## 15 California                 5
## 16 Louisville                 5
## 17 Ohio State                 5
## 18 Wake Forest                5
## 19 Colorado                   4
## 20 Connecticut                4
## 21 Creighton                  4
## 22 FC Barcelona Basquet       4
## 23 Florida                    4
## 24 Georgia Tech               4
## 25 Michigan State             4
## 26 Oregon                     4
## 27 Utah                       4
## 28 Washington                 4
## 29 Wisconsin                  4
## 30 Boston College             3
## 31 Florida State              3
## 32 Georgetown                 3
## 33 Gonzaga                    3
## 34 Iowa State                 3
## 35 Marquette                  3
## 36 Maryland                   3
## 37 Miami (FL)                 3
## 38 North Carolina State       3
## 39 Notre Dame                 3
## 40 Oklahoma                   3
## 41 Purdue                     3
## 42 Southern Methodist         3
## 43 Stanford                   3
## 44 Tennessee                  3
## 45 Virginia                   3
## 46 Anadolu Efes S.K.          2
## 47 Baylor                     2
## 48 Butler                     2
## 49 Cincinnati                 2
## 50 Kansas State               2
## # ℹ 18 more rows

Here we have a problem. If we’re interested just in colleges, we’re going to need to structure this a bit more. The code below filters out three categories that we don’t want: missing data, anything classified as others, and sports teams from other countries. The last is incomplete– I probably missed some! If I were doing this for real, I would use a list of colleges and only include those names.

What I do below is to negate the str_detect variable by placing the ! in front of it. This means I want all of the cases that don’t match the pattern the supplied. The pattern makes heavy use of the OR operator |. I’m saying I don’t want to include players whose organization included the letters CB r KK and so on (these are common prefixes for sports organizations in other countries, I definitely did not look that up on Wikipedia. Ok, I did.).

nba%>%
  filter(!is.na(org))%>%
  filter(!org=="Other")%>%
  filter(!str_detect(org,"CB|KK|rytas|FC|B.C.|S.K.|Madrid"))%>%
  group_by(org)%>%
  count()%>%
  arrange(-n)%>%
  print(n=50)

## # A tibble: 57 × 2
## # Groups:   org [57]
##    org                        n
##    <fct>                  <int>
##  1 Kentucky                  25
##  2 Duke                      17
##  3 California-Los Angeles    15
##  4 Kansas                    11
##  5 Arizona                   10
##  6 Texas                     10
##  7 North Carolina             9
##  8 Michigan                   8
##  9 Villanova                  7
## 10 Indiana                    6
## 11 Southern California        6
## 12 Syracuse                   6
## 13 California                 5
## 14 Louisville                 5
## 15 Ohio State                 5
## 16 Wake Forest                5
## 17 Colorado                   4
## 18 Connecticut                4
## 19 Creighton                  4
## 20 Florida                    4
## 21 Georgia Tech               4
## 22 Michigan State             4
## 23 Oregon                     4
## 24 Utah                       4
## 25 Washington                 4
## 26 Wisconsin                  4
## 27 Boston College             3
## 28 Florida State              3
## 29 Georgetown                 3
## 30 Gonzaga                    3
## 31 Iowa State                 3
## 32 Marquette                  3
## 33 Maryland                   3
## 34 Miami (FL)                 3
## 35 North Carolina State       3
## 36 Notre Dame                 3
## 37 Oklahoma                   3
## 38 Purdue                     3
## 39 Southern Methodist         3
## 40 Stanford                   3
## 41 Tennessee                  3
## 42 Virginia                   3
## 43 Baylor                     2
## 44 Butler                     2
## 45 Cincinnati                 2
## 46 Kansas State               2
## 47 Louisiana State            2
## 48 Memphis                    2
## 49 Missouri                   2
## 50 Murray State               2
## # ℹ 7 more rows
…
We know that field goals are continuous (sort of) so let’s summarize them via the mean. We know that college is a categorical variable, so we’ll use that to group the data. This is one of our first examples of a conditiona mean, which we’ll use a lot.

Top 50 Colleges by Total FG

nba%>%
  filter(!is.na(org))%>%
  filter(!org=="Other")%>%
  filter(!str_detect(org,"CB|KK|rytas|FC|B.C.|S.K.|Madrid"))%>%
  group_by(org)%>%
  summarize(mean_fg=sum(fgm))%>%
  arrange(-mean_fg)%>%
  print(n=50)

## # A tibble: 57 × 2
##    org                    mean_fg
##    <fct>                    <dbl>
##  1 Kentucky                  6594
##  2 Duke                      4623
##  3 Texas                     3437
##  4 California-Los Angeles    3382
##  5 Kansas                    2765
##  6 Arizona                   2101
##  7 Oklahoma                  1767
##  8 Southern California       1758
##  9 Louisville                1679
## 10 North Carolina            1659
## 11 Indiana                   1522
## 12 Ohio State                1486
## 13 Michigan                  1392
## 14 Wake Forest               1364
## 15 Connecticut               1299
## 16 Villanova                 1222
## 17 Georgia Tech              1169
## 18 Tennessee                 1095
## 19 Stanford                   949
## 20 Utah                       943
## 21 Marquette                  873
## 22 Gonzaga                    863
## 23 Michigan State             820
## 24 Colorado                   818
## 25 Virginia                   816
## 26 Maryland                   811
## 27 Missouri                   756
## 28 California                 734
## 29 Florida State              733
## 30 Georgetown                 717
## 31 Memphis                    620
## 32 Florida                    618
## 33 North Carolina State       598
## 34 Boston College             586
## 35 Louisiana State            583
## 36 Syracuse                   567
## 37 Iowa State                 523
## 38 Butler                     459
## 39 Wisconsin                  456
## 40 Creighton                  432
## 41 Oregon                     352
## 42 Texas A&M                  322
## 43 Baylor                     312
## 44 Providence                 291
## 45 Purdue                     275
## 46 Notre Dame                 263
## 47 Ulkerspor                  252
## 48 Southern Methodist         246
## 49 Oklahoma State             242
## 50 West Virginia              236
## # ℹ 7 more rows

Next, what about field goal percentage?

Top 50 Colleges by Average Field Goal Percent

nba%>%
  filter(!is.na(org))%>%
  filter(!org=="Other")%>%
  filter(!str_detect(org,"CB|KK|rytas|FC|B.C.|S.K.|Madrid"))%>%
  group_by(org)%>%
  summarize(mean_ftp=mean(pctFT))%>%
  arrange(-mean_ftp)%>%
  print(n=50)

## # A tibble: 57 × 2
##    org                  mean_ftp
##    <fct>                   <dbl>
##  1 Tennessee               0.842
##  2 Virginia                0.833
##  3 Oklahoma                0.823
##  4 North Carolina State    0.817
##  5 West Virginia           0.804
##  6 Ulkerspor               0.803
##  7 Missouri                0.802
##  8 Wake Forest             0.802
##  9 Florida State           0.801
## 10 Murray State            0.798
## 11 Iowa State              0.795
## 12 Notre Dame              0.792
## 13 Memphis                 0.788
## 14 Florida                 0.784
## 15 Michigan                0.783
## 16 Stanford                0.779
## 17 Georgetown              0.775
## 18 Marquette               0.774
## 19 Utah                    0.770
## 20 Kansas State            0.767
## 21 Butler                  0.762
## 22 Gonzaga                 0.761
## 23 North Carolina          0.756
## 24 Villanova               0.755
## 25 Texas                   0.752
## 26 Connecticut             0.748
## 27 Providence              0.747
## 28 Boston College          0.742
## 29 Michigan State          0.730
## 30 Kansas                  0.729
## 31 Indiana                 0.729
## 32 Duke                    0.728
## 33 Baylor                  0.726
## 34 Arizona                 0.721
## 35 Pallacanestro Biella    0.718
## 36 Wisconsin               0.712
## 37 Kentucky                0.712
## 38 Georgia Tech            0.712
## 39 Louisiana State         0.709
## 40 Creighton               0.698
## 41 Maryland                0.695
## 42 Vanderbilt              0.688
## 43 Washington              0.680
## 44 Louisville              0.679
## 45 Ohio State              0.679
## 46 California              0.675
## 47 Southern Methodist      0.673
## 48 Oregon                  0.662
## 49 Texas A&M               0.652
## 50 Southern California     0.648
## # ℹ 7 more rows
…
