Manipulating data in `R` | Introduction to Data Science
…
We can combine this with the | operator, which remember stands for “or.” Let’s say we want all the institutions in Colorado OR California.

df%>%
  filter(str_detect(instnm,"Colorado") | str_detect(instnm,"California"))%>%
  select(instnm,adm_rate,sat_avg)

## # A tibble: 57 × 3
##    instnm                                                  adm_rate sat_avg
##    <chr>                                                      <dbl>   <int>
##  1 California Institute of Integral Studies                 NA           NA
##  2 California Baptist University                             0.783     1096
##  3 California College of the Arts                            0.850       NA
##  4 California Institute of Technology                        0.0642    1557
##  5 California Lutheran University                            0.714     1168
##  6 California Polytechnic State University-San Luis Obispo   0.284     1342
##  7 California State University-Bakersfield                   0.807       NA
##  8 California State University-Stanislaus                    0.893       NA
##  9 California State University-San Bernardino                0.686      985
## 10 California State Polytechnic University-Pomona            0.546     1143
## # ℹ 47 more rows

We can also put this together in one (notice that everything goes inside the quotes)

df%>%
  filter(str_detect(instnm,"Colorado|California"))%>%
  select(instnm,adm_rate,sat_avg)

## # A tibble: 57 × 3
##    instnm                                                  adm_rate sat_avg
##    <chr>                                                      <dbl>   <int>
##  1 California Institute of Integral Studies                 NA           NA
##  2 California Baptist University                             0.783     1096
##  3 California College of the Arts                            0.850       NA
##  4 California Institute of Technology                        0.0642    1557
##  5 California Lutheran University                            0.714     1168
##  6 California Polytechnic State University-San Luis Obispo   0.284     1342
##  7 California State University-Bakersfield                   0.807       NA
##  8 California State University-Stanislaus                    0.893       NA
##  9 California State University-San Bernardino                0.686      985
## 10 California State Polytechnic University-Pomona            0.546     1143
## # ℹ 47 more rows
…
# INSERT CODE HERE

Extending Select

Select can also be used with other characteristics.

For quick guide on this: https://dplyr.tidyverse.org/reference/select.html

For example, we can select just variables that contain the word “region”

df%>%
  select(contains("region"))

## # A tibble: 2,546 × 1
##    region   
##    <chr>    
##  1 Southeast
##  2 Southeast
##  3 Southeast
##  4 Southeast
##  5 Southeast
##  6 Southeast
##  7 Southeast
##  8 Southeast
##  9 Southeast
## 10 Southeast
## # ℹ 2,536 more rows

contains() and matches() are equivalent functions

df %>%
  select(matches('region'))

## # A tibble: 2,546 × 1
##    region   
##    <chr>    
##  1 Southeast
##  2 Southeast
##  3 Southeast
##  4 Southeast
##  5 Southeast
##  6 Southeast
##  7 Southeast
##  8 Southeast
##  9 Southeast
## 10 Southeast
## # ℹ 2,536 more rows

We can augment these with the logical operators listed above

# Removes columns with "inst" in their names
df %>%
  select(!matches('inst'))

## # A tibble: 2,546 × 15
##    unitid stabbr grad_debt_mdn control region  preddeg openadmp adm_rate ccbasic
##     <int> <chr>          <int> <chr>   <chr>   <chr>      <int>    <dbl>   <int>
##  1 100654 AL             33375 Public  Southe… Bachel…        2    0.918      18
##  2 100663 AL             22500 Public  Southe… Bachel…        2    0.737      15
##  3 100690 AL             27334 Private Southe… Associ…        1   NA          20
##  4 100706 AL             21607 Public  Southe… Bachel…        2    0.826      16
##  5 100724 AL             32000 Public  Southe… Bachel…        2    0.969      19
##  6 100751 AL             23250 Public  Southe… Bachel…        2    0.827      15
##  7 100760 AL             12500 Public  Southe… Associ…        1   NA           2
##  8 100812 AL             19500 Public  Southe… Bachel…       NA   NA          22
##  9 100830 AL             24826 Public  Southe… Bachel…        2    0.904      18
## 10 100858 AL             21281 Public  Southe… Bachel…        2    0.807      15
## # ℹ 2,536 more rows
## # ℹ 6 more variables: sat_avg <int>, md_earn_wne_p6 <int>, ugds <int>,
## #   costt4_a <int>, selective <dbl>, research_u <dbl>

# Selects columns with either "inst" or an underline in their names
df %>%
  select(matches('inst|_'))

## # A tibble: 2,546 × 7
##    instnm      grad_debt_mdn adm_rate sat_avg md_earn_wne_p6 costt4_a research_u
##    <chr>               <int>    <dbl>   <int>          <int>    <int>      <dbl>
##  1 Alabama A …         33375    0.918     939          25200    23053          0
##  2 University…         22500    0.737    1234          35100    24495          0
##  3 Amridge Un…         27334   NA          NA          30700    14800          0
##  4 University…         21607    0.826    1319          36200    23917          1
##  5 Alabama St…         32000    0.969     946          22600    21866          0
##  6 The Univer…         23250    0.827    1261          37400    29872          0
##  7 Central Al…         12500   NA          NA          23100    10493          0
##  8 Athens Sta…         19500   NA          NA          33400       NA          0
##  9 Auburn Uni…         24826    0.904    1082          30100    19849          0
## 10 Auburn Uni…         21281    0.807    1300          39500    31590          0
## # ℹ 2,536 more rows

We can also select just variables by their type using where()

# Select only numeric variables
df%>%
  select(where(is.numeric))

## # A tibble: 2,546 × 11
##    unitid grad_debt_mdn openadmp adm_rate ccbasic sat_avg md_earn_wne_p6  ugds
##     <int>         <int>    <int>    <dbl>   <int>   <int>          <int> <int>
##  1 100654         33375        2    0.918      18     939          25200  5271
##  2 100663         22500        2    0.737      15    1234          35100 13328
##  3 100690         27334        1   NA          20      NA          30700   365
##  4 100706         21607        2    0.826      16    1319          36200  7785
##  5 100724         32000        2    0.969      19     946          22600  3750
##  6 100751         23250        2    0.827      15    1261          37400 31900
##  7 100760         12500        1   NA           2      NA          23100  1201
##  8 100812         19500       NA   NA          22      NA          33400  2677
##  9 100830         24826        2    0.904      18    1082          30100  4407
## 10 100858         21281        2    0.807      15    1300          39500 24209
## # ℹ 2,536 more rows
## # ℹ 3 more variables: costt4_a <int>, selective <dbl>, research_u <dbl>
…
