Data Wrangling | Introduction to Data Science
…
## # A tibble: 3 × 14
##     SEX AGE10 PRSMI20 PARTYID WEIGHT QRACEAI EDUC18  LGBT BRNAGAIN LATINOS
##   <dbl> <dbl>   <dbl>   <dbl>  <dbl>   <dbl>  <dbl> <dbl>    <dbl>   <dbl>
## 1     2     2       1       3  0.405       1      4    NA       NA       2
## 2     2    10       1       1  1.81        2      1     2        1       2
## 3     2     7       1       1  0.860       1      5     2        2       2
## # ℹ 4 more variables: RACISM20 <dbl>, QLT20 <fct>, preschoice <chr>,
## #   Quality <chr>

To select the first three columns…

MI_final_small[,1:3]

## # A tibble: 1,231 × 3
##      SEX AGE10 PRSMI20
##    <dbl> <dbl>   <dbl>
##  1     2     2       1
##  2     2    10       1
##  3     2     7       1
##  4     1     9       1
##  5     2     8       1
##  6     2     7       1
##  7     1     9       1
##  8     1     8       1
##  9     2     6       2
## 10     1     8       1
## # ℹ 1,221 more rows
…
This is an important reminder to always inspect your data and then you often, if not always, need to wrangle data before doing analysis!

Quick Exercise How many Democrats and Republicans are in our sample?

# INSERT CODE HERE

Note that count is not useful for many-valued (continuous) variables because each value is likely to occur only a small number of times.

MI_final %>% 
  count(WEIGHT)

## # A tibble: 411 × 2
##    WEIGHT     n
##     <dbl> <int>
##  1  0.100     1
##  2  0.113     1
##  3  0.119     1
##  4  0.133     2
##  5  0.141     1
##  6  0.142     1
##  7  0.144     1
##  8  0.146     1
##  9  0.147     1
## 10  0.149     5
## # ℹ 401 more rows
…
